[
    [
        {
            "name": "Chinese character radicals - Wikipedia",
            "href": "https://en.wikipedia.org/wiki/Chinese_character_radicals"
        },
        {
            "name": "List of radicals in Unicode - Wikipedia",
            "href": "https://en.wikipedia.org/wiki/List_of_radicals_in_Unicode"
        },
        {
            "name": "Kangxi radicals - Wikipedia",
            "href": "https://en.wikipedia.org/wiki/Kangxi_radicals"
        },
        {
            "name": "Kangxi Dictionary - Wikipedia",
            "href": "https://en.wikipedia.org/wiki/Kangxi_Dictionary"
        }
    ],
    [
        {
            "name": "Kangxi Radicals (Unicode block) - Wikipedia",
            "href": "https://en.wikipedia.org/wiki/Kangxi_Radicals_(Unicode_block)"
        },
        {
            "name": "CJK Radicals Supplement - Wikipedia",
            "href": "https://en.wikipedia.org/wiki/CJK_Radicals_Supplement"
        }
    ],
    [
        {
            "name": "List of kanji radicals by stroke count - Wikipedia",
            "href": "https://en.wikipedia.org/wiki/List_of_kanji_radicals_by_stroke_count"
        },
        {
            "name": "List of kanji radicals by frequency - Wikipedia",
            "href": "https://en.wikipedia.org/wiki/List_of_kanji_radicals_by_frequency"
        }
    ],
    [
        {
            "name": "Unicode equivalence - Wikipedia",
            "href": "https://en.wikipedia.org/wiki/Unicode_equivalence"
        }
    ],
    [
        {
            "name": "EquivalentUnifiedIdeograph.txt",
            "href": "https://www.unicode.org/Public/16.0.0/ucd/EquivalentUnifiedIdeograph.txt"
        }
    ],
    [
        {
            "name": "NamesList.txt",
            "href": "https://www.unicode.org/Public/16.0.0/ucd/NamesList.txt"
        },
        {
            "name": "Unicode NamesList Format",
            "href": "https://www.unicode.org/Public/UCD/latest/ucd/NamesList.html"
        },
        {
            "name": "Proposal to add Kangxi Radical annotations to the CJK Radicals Supplement block - 22277-kangxi-radical-annotations.pdf",
            "href": "https://www.unicode.org/L2/L2022/22277-kangxi-radical-annotations.pdf"
        }
    ],
    [
        {
            "name": "CJKRadicals.txt",
            "href": "https://www.unicode.org/Public/16.0.0/ucd/CJKRadicals.txt"
        }
    ],
    [
        {
            "name": "Kangxi Radicals - U2F00.pdf",
            "href": "https://www.unicode.org/charts/PDF/U2F00.pdf"
        },
        {
            "name": "CJK Radicals Supplement - U2E80.pdf",
            "href": "https://www.unicode.org/charts/PDF/U2E80.pdf"
        }
    ],
    [
        {
            "name": "UAX #15: Unicode Normalization Forms",
            "href": "https://www.unicode.org/reports/tr15/"
        },
        {
            "name": "UCA: Han",
            "href": "https://www.unicode.org/charts/normalization/chart_Han.html"
        }
    ],
    [
        {
            "name": "Proposal to change the font for the CJK Radicals Supplement & Kangxi Radicals blocks - 19212r-n5069r-radical.pdf",
            "href": "https://www.unicode.org/L2/L2019/19212r-n5069r-radical.pdf"
        },
        {
            "name": "GitHub - adobe-fonts/cjk-radicals: CJK Radicals (CJK Radicals Supplement & Kangxi Radicals)",
            "href": "https://github.com/adobe-fonts/cjk-radicals"
        }
    ],
    [
        {
            "name": "⺀ - Wiktionary, the free dictionary",
            "href": "https://en.wiktionary.org/wiki/%E2%BA%80"
        },
        {
            "lang": "ja",
            "name": "⺀ - ウィクショナリー日本語版",
            "href": "https://ja.wiktionary.org/wiki/%E2%BA%80"
        },
        {
            "lang": "zh",
            "name": "⺀ - 维基词典，自由的多语言词典",
            "href": "https://zh.wiktionary.org/wiki/%E2%BA%80"
        }
    ]
]