{
    "1-Stroke Primitives": "乀乁𠃉𠃊𠃋𠃌𠃍𠃎𠃑𠄌𠄎𡿨",
    "2-Stroke Primitives": "㐅丁丂七丄丅丆丩乂乃乜九了刁巜龴𠀁𠁡𠂇𠂈𠂉𠃎𠃏𠄏𠄐𠄟𠄠𠤎𢎘𪜊𫠠𬺰𰀪𰀫𰆊𰛄",
    "3-Stroke Primitives [1]": "㐄㔿䒑万丈三上下丌与个丫丸久乆乇么义乊之乞也习乡亇亍于亏亐亡亼亽亾亿兦凡凢刃刄勺卂千卄卪卫叉及夨孒孓才",
    "3-Stroke Primitives [2]": "𠀃𠀄𠀆𠂋𠂌𠂎𠃒𠃓𠃔𠓛𠔀𠔼𠙵𠚤𠧒𠫓𠫔𡕒𡤼𡰣𡳾𢎘𣥂𣦶𪜀𪜁𫝀𫝄𫡃𫡏𫶧𬺱𬼖𬼸𬼽𭅲𭠍𰀁𰀂𰀃𰀄𰀠𰀰𰃦𰛅",
    "4-Stroke Miscellaneous [1]": "㕚㕛㞢㸦丏丐丑专丮丯丰丹为乏云互亓亖亢今介仌从仑仒仓允兮冄冈冘凶刅办勻勾勿匀匂区卅卆升卝卬厃厄壬夬夭尤尹尺屯巨巴巿帀币廿开弔朩毌韦龰龵龶龷",
    "4-Stroke Miscellaneous [2]": "𠀇𠀉𠁣𠂒𠃛𠃜𠓜𠔃𠔽𠔾𠔿𠕀𠘬𠘭𠚪𠠴𠠵𠤏𠫓𠫘𠬛𠬜𠬝𠬞𠮚𠮛𡈼𡗓𡭕𡴯𡿧𢀳𢆯𢆰𣁬𣂑𣎳𣎴𣬛𤓯𤓰𥘅𪟽𫧇𫩏𬺶𬺷𬺹𭁟𭂩𭂫𭃂𭄞𭅄𭅠𭣔𰀆𰀡𰁒𰅭𰋵𰍰",
    "Frequently Used": "䒑丄丅丆乛从卄卝吅廾廿由甲龶龷𠀃𠂇𠂉𠃊𠃍𠃎𠮛𫜹𫩏𰀁𰀄𰀪",
    "Quadruplets": "㗊㠭㵘㸚䨻䲜叕朤燚𠁠𠈌𠓙𠔻𠫬𡈶𡚌𡮐𣊭𣌠𣡍𣡽𣡾𣬅𤆁𤛭𤳳𤳵𥗉𥷹𦓋𧮦𨏿𨰻𨷾𩇔𩙡𪚥𭭴𰀱𰙉𰽔𱤏"
}